{
  "todos": [
    {
      "todo": "kllk lk",
      "label": "lklkllkl",
      "id": "734020f5",
      "date": "12/06/2023 à 22:27:43",
      "isDone": false
    },
    {
      "todo": "Test",
      "id": "e363b1fe",
      "date": "12/06/2023 23:49:09",
      "isDone": false
    },
    {
      "todo": "TestUpdate",
      "id": "7c1e222c",
      "date": "13/06/2023 09:29:02",
      "isDone": false
    },
    {
      "todo": "TestUpdate",
      "id": "683fb8cf",
      "date": "13/06/2023 09:49:37",
      "isDone": false
    }
  ],
  "labels": [
    {
      "label": "uncategorized",
      "count": 0,
      "id": "17daee68"
    },
    {
      "label": "lklkllkl",
      "count": 1,
      "id": "f871e214"
    }
  ]
}